<?xml version="1.0" encoding="UTF-8" standalone="no"?>
<!-- Created with Inkscape (http://www.inkscape.org/) -->

<svg
   xmlns:dc="http://purl.org/dc/elements/1.1/"
   xmlns:cc="http://creativecommons.org/ns#"
   xmlns:rdf="http://www.w3.org/1999/02/22-rdf-syntax-ns#"
   xmlns:svg="http://www.w3.org/2000/svg"
   xmlns="http://www.w3.org/2000/svg"
   xmlns:sodipodi="http://sodipodi.sourceforge.net/DTD/sodipodi-0.dtd"
   xmlns:inkscape="http://www.inkscape.org/namespaces/inkscape"
   width="25.761272mm"
   height="25.443478mm"
   viewBox="0 0 25.761273 25.443477"
   version="1.1"
   id="svg1868"
   inkscape:version="0.92.5 (2060ec1f9f, 2020-04-08)"
   sodipodi:docname="affichage_stat.svg">
  <defs
     id="defs1862">
    <linearGradient
       id="SVGID_4_"
       gradientUnits="userSpaceOnUse"
       x1="47"
       y1="13"
       x2="47"
       y2="3">
      <stop
         offset="0"
         style="stop-color:#FFFFFF"
         id="stop53" />
      <stop
         offset="0.99967"
         style="stop-color:#DCDCDC"
         id="stop55" />
    </linearGradient>
    <linearGradient
       id="SVGID_3_"
       gradientUnits="userSpaceOnUse"
       x1="17"
       y1="13"
       x2="17"
       y2="3">
      <stop
         offset="0"
         style="stop-color:#FFFFFF"
         id="stop44" />
      <stop
         offset="0.99967"
         style="stop-color:#DCDCDC"
         id="stop46" />
    </linearGradient>
    <linearGradient
       id="SVGID_2_"
       gradientUnits="userSpaceOnUse"
       x1="32"
       y1="59"
       x2="32"
       y2="5">
      <stop
         offset="0"
         style="stop-color:#000000"
         id="stop21" />
      <stop
         offset="0.06"
         style="stop-color:#000000;stop-opacity:0"
         id="stop23" />
    </linearGradient>
    <linearGradient
       id="SVGID_1_"
       gradientUnits="userSpaceOnUse"
       x1="32"
       y1="59"
       x2="32"
       y2="5">
      <stop
         offset="0"
         style="stop-color:#ECECEC"
         id="stop10" />
      <stop
         offset="1"
         style="stop-color:#FFFFFF"
         id="stop12" />
    </linearGradient>
  </defs>
  <sodipodi:namedview
     id="base"
     pagecolor="#ffffff"
     bordercolor="#666666"
     borderopacity="1.0"
     inkscape:pageopacity="0.0"
     inkscape:pageshadow="2"
     inkscape:zoom="6.4680951"
     inkscape:cx="48.68272"
     inkscape:cy="48.082162"
     inkscape:document-units="mm"
     inkscape:current-layer="layer1"
     showgrid="false"
     inkscape:window-width="778"
     inkscape:window-height="836"
     inkscape:window-x="822"
     inkscape:window-y="27"
     inkscape:window-maximized="0" />
  <metadata
     id="metadata1865">
    <rdf:RDF>
      <cc:Work
         rdf:about="">
        <dc:format>image/svg+xml</dc:format>
        <dc:type
           rdf:resource="http://purl.org/dc/dcmitype/StillImage" />
        <dc:title></dc:title>
      </cc:Work>
    </rdf:RDF>
  </metadata>
  <g
     inkscape:label="Calque 1"
     inkscape:groupmode="layer"
     id="layer1"
     transform="translate(-106.8159,-129.08197)">
    <g
       id="g1124"
       transform="translate(92.363708,79.459)">
      <g
         transform="translate(26.232579)"
         id="g1076"
         inkscape:export-filename="/home/vincent/affichage_stat.png"
         inkscape:export-xdpi="252"
         inkscape:export-ydpi="252">
        <path
           sodipodi:nodetypes="ssssccscsscsssccssscs"
           inkscape:connector-curvature="0"
           id="path1039"
           d="m -7.860138,50.327249 c -2.171764,0 -3.920249,1.763985 -3.920249,3.954797 v 16.827606 c 0,2.190811 1.748485,3.954799 3.920249,3.954799 H 4.212231 l 5.608453,0.0206 c 2.678978,-0.01402 4.160202,-1.389344 4.160202,-3.975402 V 65.84205 54.282046 c 0,-2.190812 -1.748481,-3.954797 -3.920249,-3.954797 H 7.251182 v 3.615978 c 0,0.801211 -0.516532,1.445906 -1.157953,1.445906 -0.641421,0 -1.157955,-0.644695 -1.157955,-1.445906 v -3.615978 h -7.670049 v 3.615978 c 0,0.801211 -0.516532,1.445906 -1.157955,1.445906 -0.641419,0 -1.157953,-0.644695 -1.157953,-1.445906 v -3.615978 z"
           style="opacity:1;vector-effect:none;fill:#455170;fill-opacity:1;stroke:none;stroke-width:0.12725258;stroke-linecap:round;stroke-linejoin:round;stroke-miterlimit:4;stroke-dasharray:none;stroke-dashoffset:0;stroke-opacity:1;marker:none" />
        <path
           sodipodi:nodetypes="ccccscssccc"
           inkscape:connector-curvature="0"
           id="path1041"
           d="m -10.477637,57.016262 h 23.155773 v 10.298789 0.702284 1.505333 c 0,3.049829 -1.428332,3.915011 -3.202473,3.915008 H -7.275162 c -2.135701,0 -3.202475,-1.02336 -3.202475,-3.915008 v -1.505333 -0.702284 z"
           style="opacity:1;vector-effect:none;fill:#ffffff;fill-opacity:1;stroke:none;stroke-width:0.12725258;stroke-linecap:round;stroke-linejoin:round;stroke-miterlimit:4;stroke-dasharray:none;stroke-dashoffset:0;stroke-opacity:1;marker:none" />
        <rect
           style="opacity:1;vector-effect:none;fill:#2a3758;fill-opacity:1;stroke:none;stroke-width:0.08947423;stroke-linecap:round;stroke-linejoin:round;stroke-miterlimit:4;stroke-dasharray:none;stroke-dashoffset:0;stroke-opacity:1;marker:none"
           id="rect1045"
           width="1.3025237"
           height="5.0618033"
           x="-4.5440226"
           y="49.604366"
           ry="0.8135041"
           rx="0.8135041" />
        <rect
           ry="0.8135041"
           y="49.604366"
           x="5.4420156"
           height="5.0618033"
           width="1.3025237"
           id="rect1047"
           style="opacity:1;vector-effect:none;fill:#2a3758;fill-opacity:1;stroke:none;stroke-width:0.08947423;stroke-linecap:round;stroke-linejoin:round;stroke-miterlimit:4;stroke-dasharray:none;stroke-dashoffset:0;stroke-opacity:1;marker:none"
           rx="0.8135041" />
      </g>
      <g
         id="g1107">
        <path
           style="opacity:1;vector-effect:none;fill:#b5bdd2;fill-opacity:1;stroke:#342144;stroke-width:0;stroke-linecap:round;stroke-linejoin:round;stroke-miterlimit:4;stroke-dasharray:none;stroke-dashoffset:0;stroke-opacity:1;marker:none"
           id="path1029"
           sodipodi:type="arc"
           sodipodi:cx="28.132797"
           sodipodi:cy="65.179306"
           sodipodi:rx="7.5348444"
           sodipodi:ry="7.5348444"
           sodipodi:start="0"
           sodipodi:end="6.0213859"
           d="m 35.667642,65.179306 a 7.5348444,7.5348444 0 0 1 -7.042042,7.518712 7.5348444,7.5348444 0 0 1 -7.963186,-6.535217 7.5348444,7.5348444 0 0 1 6.000408,-8.373559 7.5348444,7.5348444 0 0 1 8.748076,5.439903 l -7.278101,1.950161 z" />
        <path
           d="m 33.460737,70.507246 a 7.5348444,7.5348444 0 0 1 -9.095362,1.197427 7.5348444,7.5348444 0 0 1 -3.510679,-8.475528 7.5348444,7.5348444 0 0 1 7.278101,-5.584683 7.5348444,7.5348444 0 0 1 7.278101,5.584683 l -7.278101,1.950161 z"
           sodipodi:end="6.0213859"
           sodipodi:start="0.78539816"
           sodipodi:ry="7.5348444"
           sodipodi:rx="7.5348444"
           sodipodi:cy="65.179306"
           sodipodi:cx="28.132797"
           sodipodi:type="arc"
           id="path1033"
           style="opacity:1;vector-effect:none;fill:#7988ad;fill-opacity:1;stroke:#342144;stroke-width:0;stroke-linecap:round;stroke-linejoin:round;stroke-miterlimit:4;stroke-dasharray:none;stroke-dashoffset:0;stroke-opacity:1;marker:none" />
        <path
           style="opacity:1;vector-effect:none;fill:#4c5a7c;fill-opacity:1;stroke:#342144;stroke-width:0;stroke-linecap:round;stroke-linejoin:round;stroke-miterlimit:4;stroke-dasharray:none;stroke-dashoffset:0;stroke-opacity:1;marker:none"
           id="path1035"
           sodipodi:type="arc"
           sodipodi:cx="28.132797"
           sodipodi:cy="65.179306"
           sodipodi:rx="7.5348444"
           sodipodi:ry="7.5348444"
           sodipodi:start="2.6179939"
           sodipodi:end="6.0213859"
           d="m 21.60743,68.946728 a 7.5348444,7.5348444 0 0 1 0.353184,-8.089231 7.5348444,7.5348444 0 0 1 7.480595,-3.098564 7.5348444,7.5348444 0 0 1 5.969689,5.470212 l -7.278101,1.950161 z" />
        <path
           d="m 28.132797,57.644462 a 7.5348444,7.5348444 0 0 1 7.278101,5.584683 l -7.278101,1.950161 z"
           sodipodi:end="6.0213859"
           sodipodi:start="4.712389"
           sodipodi:ry="7.5348444"
           sodipodi:rx="7.5348444"
           sodipodi:cy="65.179306"
           sodipodi:cx="28.132797"
           sodipodi:type="arc"
           id="path1037"
           style="opacity:1;vector-effect:none;fill:#2a3758;fill-opacity:1;stroke:#342144;stroke-width:0;stroke-linecap:round;stroke-linejoin:round;stroke-miterlimit:4;stroke-dasharray:none;stroke-dashoffset:0;stroke-opacity:1;marker:none" />
        <circle
           id="path1031"
           style="opacity:1;vector-effect:none;fill:#ffffff;fill-opacity:1;stroke:#342144;stroke-width:0;stroke-linecap:round;stroke-linejoin:round;stroke-miterlimit:4;stroke-dasharray:none;stroke-dashoffset:0;stroke-opacity:1;marker:none"
           cx="28.132797"
           cy="65.179306"
           r="2.9302175" />
        <path
           style="fill:none;stroke:#232e4a;stroke-width:0.1;stroke-linecap:round;stroke-linejoin:miter;stroke-miterlimit:4;stroke-dasharray:none;stroke-opacity:1"
           d="m 32.864702,59.175909 1.021395,-1.021394 h 4.861451"
           id="path1085"
           inkscape:connector-curvature="0"
           sodipodi:nodetypes="ccc" />
        <path
           inkscape:connector-curvature="0"
           id="path1087"
           d="m 34.909767,68.591302 1.021395,1.021394 h 2.827071"
           style="fill:none;stroke:#232e4a;stroke-width:0.1;stroke-linecap:round;stroke-linejoin:miter;stroke-miterlimit:4;stroke-dasharray:none;stroke-opacity:1"
           sodipodi:nodetypes="ccc" />
        <path
           inkscape:connector-curvature="0"
           id="path1089"
           d="M 21.442677,61.419993 20.421282,60.398599 H 15.931095"
           style="fill:none;stroke:#232e4a;stroke-width:0.1;stroke-linecap:round;stroke-linejoin:miter;stroke-miterlimit:4;stroke-dasharray:none;stroke-opacity:1"
           sodipodi:nodetypes="ccc" />
        <path
           style="fill:none;stroke:#232e4a;stroke-width:0.1;stroke-linecap:round;stroke-linejoin:miter;stroke-miterlimit:4;stroke-dasharray:none;stroke-opacity:1"
           d="m 25.381797,72.265688 -1.021395,1.021394 h -5.883067"
           id="path1091"
           inkscape:connector-curvature="0"
           sodipodi:nodetypes="ccc" />
      </g>
    </g>
  </g>
</svg>
