<?xml version="1.0" encoding="UTF-8" standalone="no"?>
<svg
   xmlns:dc="http://purl.org/dc/elements/1.1/"
   xmlns:cc="http://creativecommons.org/ns#"
   xmlns:rdf="http://www.w3.org/1999/02/22-rdf-syntax-ns#"
   xmlns:svg="http://www.w3.org/2000/svg"
   xmlns="http://www.w3.org/2000/svg"
   xmlns:xlink="http://www.w3.org/1999/xlink"
   xmlns:sodipodi="http://sodipodi.sourceforge.net/DTD/sodipodi-0.dtd"
   xmlns:inkscape="http://www.inkscape.org/namespaces/inkscape"
   version="1.1"
   id="svg815"
   width="723.57288"
   height="182.98503"
   viewBox="0 0 723.57288 182.98502"
   sodipodi:docname="splash.svg"
   inkscape:version="0.92.5 (2060ec1f9f, 2020-04-08)">
  <metadata
     id="metadata821">
    <rdf:RDF>
      <cc:Work
         rdf:about="">
        <dc:format>image/svg+xml</dc:format>
        <dc:type
           rdf:resource="http://purl.org/dc/dcmitype/StillImage" />
        <dc:title />
      </cc:Work>
    </rdf:RDF>
  </metadata>
  <defs
     id="defs819">
    <linearGradient
       inkscape:collect="always"
       id="linearGradient22">
      <stop
         style="stop-color:#673251;stop-opacity:1"
         offset="0"
         id="stop18" />
      <stop
         id="stop28"
         offset="0.74260354"
         style="stop-color:#dfbcd1;stop-opacity:1" />
      <stop
         id="stop26"
         offset="0.78106511"
         style="stop-color:#673251;stop-opacity:1" />
      <stop
         style="stop-color:#964976;stop-opacity:1"
         offset="1"
         id="stop20" />
    </linearGradient>
    <linearGradient
       inkscape:collect="always"
       xlink:href="#linearGradient22"
       id="linearGradient835"
       gradientUnits="userSpaceOnUse"
       x1="168.78569"
       y1="6.1668568"
       x2="168.78569"
       y2="185.66299"
       gradientTransform="matrix(0.5,0,0,0.49827917,4.7034646,-0.52631717)" />
  </defs>
  <sodipodi:namedview
     pagecolor="#ffffff"
     bordercolor="#666666"
     borderopacity="1"
     objecttolerance="10"
     gridtolerance="10"
     guidetolerance="10"
     inkscape:pageopacity="0"
     inkscape:pageshadow="2"
     inkscape:window-width="1556"
     inkscape:window-height="836"
     id="namedview817"
     showgrid="false"
     inkscape:zoom="2.1510646"
     inkscape:cx="434.78007"
     inkscape:cy="-28.324356"
     inkscape:window-x="44"
     inkscape:window-y="27"
     inkscape:window-maximized="1"
     inkscape:current-layer="splash"
     showguides="false"
     fit-margin-top="0"
     fit-margin-left="0"
     fit-margin-right="0"
     fit-margin-bottom="0" />
  <g
     id="splash"
     inkscape:export-xdpi="180.00322"
     inkscape:export-ydpi="180.00322"
     inkscape:label="#splash"
     transform="matrix(2,0,0,2.0069071,-9.4069292,1.0562697)"
     style="stroke-width:0.49913883">
    <path
       inkscape:connector-curvature="0"
       inkscape:export-ydpi="200"
       inkscape:export-xdpi="200"
       d="m 4.7148866,72.339569 c 0.2283506,16.294608 0,18.311741 0,18.311741 H 358.29703 c 5.43711,0 8.17954,-3.732896 8.17954,-7.743391 V 72.42904 H 12.698703 c -2.7871877,0 -5.4288129,-0.03739 -7.9838164,-0.08947 z M 34.476208,8.1111608 c -16.494383,0 -29.7727434,13.2802602 -29.7727434,29.7746432 v 30.26388 c 2.5584362,-0.05223 5.2038441,-0.08947 7.9952384,-0.08947 H 366.48989 V 37.885801 8.1111608 h -29.77274 z"
       style="opacity:1;vector-effect:none;fill:url(#linearGradient835);fill-opacity:1;stroke:none;stroke-width:1.8547256;stroke-linecap:round;stroke-linejoin:round;stroke-miterlimit:4;stroke-dasharray:none;stroke-dashoffset:0;stroke-opacity:1;marker:none"
       id="1234"
       inkscape:label="#splash" />
    <path
       inkscape:export-ydpi="200"
       inkscape:export-xdpi="200"
       d="m 165.95356,43.710854 q 0.48388,-8.602417 -3.33344,-12.527269 -3.3872,-3.333437 -10.37666,-3.440967 -6.02169,-0.05376 -9.62396,3.548497 -3.81732,3.817322 -3.81732,10.376665 0,6.182987 3.60227,9.785248 3.76355,3.871088 10.3229,3.871088 4.46249,0 7.90347,-1.881779 3.70979,-2.150604 5.21521,-6.236752 l -7.8497,-2.419429 q -0.64519,2.150604 -2.25814,3.333436 -1.2366,0.860241 -2.79579,0.860241 -3.27967,0 -4.57003,-1.505423 -0.48389,-0.591415 -0.86024,-1.451658 -0.32259,-0.914006 -0.53765,-2.311898 z m -8.44112,-5.215216 h -10.43043 q 0.16129,-1.935543 1.82801,-3.064611 1.55919,-1.236596 3.70979,-1.236596 2.09684,0 3.33344,0.914006 1.45165,1.021537 1.55919,3.387201 z"
       style="font-style:normal;font-variant:normal;font-weight:normal;font-stretch:normal;font-size:55.16306686px;line-height:1.25;font-family:'Baekmuk Headline';-inkscape-font-specification:'Baekmuk Headline';font-variant-ligatures:normal;font-variant-caps:normal;font-variant-numeric:normal;font-feature-settings:normal;text-align:center;letter-spacing:0px;word-spacing:0px;writing-mode:lr-tb;text-anchor:middle;fill:#ffffff;fill-opacity:1;stroke:none;stroke-width:0.49913883;stroke-miterlimit:4;stroke-dasharray:none;stroke-opacity:1"
       id="path860"
       inkscape:connector-curvature="0" />
    <path
       inkscape:export-ydpi="200"
       inkscape:export-xdpi="200"
       d="m 200.68572,54.732699 -11.02184,-13.656336 9.62395,-13.27998 h -9.57018 l -5.16146,7.419584 -6.07546,-7.419584 h -9.83901 l 11.12938,13.333745 -10.59173,13.548806 h 9.57019 l 6.07546,-7.742174 5.96793,7.742174 z"
       style="font-style:normal;font-variant:normal;font-weight:normal;font-stretch:normal;font-size:55.16306686px;line-height:1.25;font-family:'Baekmuk Headline';-inkscape-font-specification:'Baekmuk Headline';font-variant-ligatures:normal;font-variant-caps:normal;font-variant-numeric:normal;font-feature-settings:normal;text-align:center;letter-spacing:0px;word-spacing:0px;writing-mode:lr-tb;text-anchor:middle;fill:#ffffff;fill-opacity:1;stroke:none;stroke-width:0.4991388;stroke-miterlimit:4;stroke-dasharray:none;stroke-opacity:1"
       id="path862"
       inkscape:connector-curvature="0" />
    <path
       inkscape:export-ydpi="200"
       inkscape:export-xdpi="200"
       d="m 230.95548,39.839766 q 0,-5.215215 -3.54849,-8.925007 -3.5485,-3.709792 -8.54866,-3.709792 -1.18283,0 -2.20436,0.10753 -0.96778,0.05376 -1.82802,0.161295 -2.09684,0.322591 -3.60226,1.129068 v -0.860242 h -7.8497 v 34.14084 h 7.74217 v -10.75302 q 0.86024,0.43012 1.77425,0.806476 0.914,0.322591 1.98931,0.537651 1.88177,0.430121 3.27967,0.430121 5.43027,0 8.97877,-3.225906 3.81732,-3.494732 3.81732,-9.839014 z m -7.90347,0 q 0,3.494732 -1.61295,5.107685 -1.45166,1.290363 -3.87109,1.290363 -2.36567,0 -3.92486,-1.290363 -1.88177,-1.774248 -1.88177,-5.376511 0,-2.74202 1.55919,-4.193678 1.61295,-1.505423 4.19368,-1.505423 2.47319,0 4.03238,1.559188 1.50542,1.666719 1.50542,4.408739 z"
       style="font-style:normal;font-variant:normal;font-weight:normal;font-stretch:normal;font-size:55.16306686px;line-height:1.25;font-family:'Baekmuk Headline';-inkscape-font-specification:'Baekmuk Headline';font-variant-ligatures:normal;font-variant-caps:normal;font-variant-numeric:normal;font-feature-settings:normal;text-align:center;letter-spacing:0px;word-spacing:0px;writing-mode:lr-tb;text-anchor:middle;fill:#ffffff;fill-opacity:1;stroke:none;stroke-width:0.49913883;stroke-miterlimit:4;stroke-dasharray:none;stroke-opacity:1"
       id="path864"
       inkscape:connector-curvature="0" />
    <path
       inkscape:export-ydpi="200"
       inkscape:export-xdpi="200"
       d="m 241.70849,54.732699 v -37.7431 h -7.31206 v 37.7431 z"
       style="font-style:normal;font-variant:normal;font-weight:normal;font-stretch:normal;font-size:55.16306686px;line-height:1.25;font-family:'Baekmuk Headline';-inkscape-font-specification:'Baekmuk Headline';font-variant-ligatures:normal;font-variant-caps:normal;font-variant-numeric:normal;font-feature-settings:normal;text-align:center;letter-spacing:0px;word-spacing:0px;writing-mode:lr-tb;text-anchor:middle;fill:#ffffff;fill-opacity:1;stroke:none;stroke-width:0.4991388;stroke-miterlimit:4;stroke-dasharray:none;stroke-opacity:1"
       id="path866"
       inkscape:connector-curvature="0" />
    <path
       inkscape:export-ydpi="200"
       inkscape:export-xdpi="200"
       d="m 275.04275,41.237659 q 0,-5.59157 -4.19368,-9.570188 -4.30121,-4.032383 -10.69925,-4.032383 -7.04323,0 -11.12938,4.032383 -3.81732,3.709791 -3.81732,9.570188 0,5.967926 3.76355,9.677719 3.97863,3.924851 11.18315,3.924851 7.41958,0 11.34444,-3.924851 3.54849,-3.602263 3.54849,-9.677719 z m -7.90347,0.10753 q -0.0538,3.010845 -1.93554,5.05392 -1.93554,2.258134 -5.05392,2.258134 -3.01085,0 -5.00016,-2.311899 -1.93554,-1.98931 -1.93554,-5.000155 -0.0538,-2.903316 1.93554,-5.16145 2.09684,-2.258135 5.00016,-2.258135 2.95708,0 5.05392,2.258135 1.9893,2.258134 1.93554,5.16145 z"
       style="font-style:normal;font-variant:normal;font-weight:normal;font-stretch:normal;font-size:55.16306686px;line-height:1.25;font-family:'Baekmuk Headline';-inkscape-font-specification:'Baekmuk Headline';font-variant-ligatures:normal;font-variant-caps:normal;font-variant-numeric:normal;font-feature-settings:normal;text-align:center;letter-spacing:0px;word-spacing:0px;writing-mode:lr-tb;text-anchor:middle;fill:#ffffff;fill-opacity:1;stroke:none;stroke-width:0.4991388;stroke-miterlimit:4;stroke-dasharray:none;stroke-opacity:1"
       id="path868"
       inkscape:connector-curvature="0" />
    <path
       inkscape:export-ydpi="200"
       inkscape:export-xdpi="200"
       d="m 297.19396,29.785692 q -1.18283,-0.430121 -2.09684,-0.698947 -0.86024,-0.268825 -1.55919,-0.43012 -1.34413,-0.376356 -2.90332,-0.376356 -1.29036,0 -2.74201,0.430121 -0.53765,0.21506 -1.0753,0.483886 -0.53765,0.21506 -1.0753,0.537651 v -1.935544 h -8.01101 v 26.828786 h 7.84971 V 41.130128 q 0,-2.84955 1.72048,-4.301208 1.39789,-1.344128 3.33343,-1.344128 0.53766,0 1.61296,0.322592 1.29036,0.43012 2.25814,0.967771 z"
       style="font-style:normal;font-variant:normal;font-weight:normal;font-stretch:normal;font-size:55.16306686px;line-height:1.25;font-family:'Baekmuk Headline';-inkscape-font-specification:'Baekmuk Headline';font-variant-ligatures:normal;font-variant-caps:normal;font-variant-numeric:normal;font-feature-settings:normal;text-align:center;letter-spacing:0px;word-spacing:0px;writing-mode:lr-tb;text-anchor:middle;fill:#ffffff;fill-opacity:1;stroke:none;stroke-width:0.49913883;stroke-miterlimit:4;stroke-dasharray:none;stroke-opacity:1"
       id="path870"
       inkscape:connector-curvature="0" />
    <path
       inkscape:export-ydpi="200"
       inkscape:export-xdpi="200"
       d="m 327.03352,43.710854 q 0.48389,-8.602417 -3.33343,-12.527269 -3.3872,-3.333437 -10.37667,-3.440967 -6.02169,-0.05376 -9.62395,3.548497 -3.81733,3.817322 -3.81733,10.376665 0,6.182987 3.60227,9.785248 3.76355,3.871088 10.32289,3.871088 4.46251,0 7.90348,-1.881779 3.70979,-2.150604 5.21521,-6.236752 l -7.8497,-2.419429 q -0.64518,2.150604 -2.25813,3.333436 -1.2366,0.860241 -2.79579,0.860241 -3.27967,0 -4.57003,-1.505423 -0.48389,-0.591415 -0.86025,-1.451658 -0.32259,-0.914006 -0.53765,-2.311898 z m -8.44112,-5.215216 h -10.43043 q 0.16129,-1.935543 1.82802,-3.064611 1.55919,-1.236596 3.70979,-1.236596 2.09684,0 3.33343,0.914006 1.45166,1.021537 1.55919,3.387201 z"
       style="font-style:normal;font-variant:normal;font-weight:normal;font-stretch:normal;font-size:55.16306686px;line-height:1.25;font-family:'Baekmuk Headline';-inkscape-font-specification:'Baekmuk Headline';font-variant-ligatures:normal;font-variant-caps:normal;font-variant-numeric:normal;font-feature-settings:normal;text-align:center;letter-spacing:0px;word-spacing:0px;writing-mode:lr-tb;text-anchor:middle;fill:#ffffff;fill-opacity:1;stroke:none;stroke-width:0.4991388;stroke-miterlimit:4;stroke-dasharray:none;stroke-opacity:1"
       id="path872"
       inkscape:connector-curvature="0" />
    <path
       inkscape:export-ydpi="200"
       inkscape:export-xdpi="200"
       d="m 349.18466,29.785692 q -1.18283,-0.430121 -2.09684,-0.698947 -0.86024,-0.268825 -1.55919,-0.43012 -1.34413,-0.376356 -2.90332,-0.376356 -1.29035,0 -2.74201,0.430121 -0.53765,0.21506 -1.0753,0.483886 -0.53765,0.21506 -1.0753,0.537651 v -1.935544 h -8.011 v 26.828786 h 7.8497 V 41.130128 q 0,-2.84955 1.72048,-4.301208 1.39789,-1.344128 3.33343,-1.344128 0.53766,0 1.61297,0.322592 1.29035,0.43012 2.25812,0.967771 z"
       style="font-style:normal;font-variant:normal;font-weight:normal;font-stretch:normal;font-size:55.16306686px;line-height:1.25;font-family:'Baekmuk Headline';-inkscape-font-specification:'Baekmuk Headline';font-variant-ligatures:normal;font-variant-caps:normal;font-variant-numeric:normal;font-feature-settings:normal;text-align:center;letter-spacing:0px;word-spacing:0px;writing-mode:lr-tb;text-anchor:middle;fill:#ffffff;fill-opacity:1;stroke:none;stroke-width:0.49913883;stroke-miterlimit:4;stroke-dasharray:none;stroke-opacity:1"
       id="path874"
       inkscape:connector-curvature="0" />
    <text
       inkscape:export-ydpi="200"
       inkscape:export-xdpi="200"
       id="__ade_explorer_version__"
       y="64.733162"
       x="353.54004"
       style="font-style:normal;font-variant:normal;font-weight:normal;font-stretch:normal;font-size:7.24773216px;line-height:1.25;font-family:ubuntu;-inkscape-font-specification:ubuntu;font-variant-ligatures:normal;font-variant-caps:normal;font-variant-numeric:normal;font-feature-settings:normal;text-align:center;letter-spacing:0px;word-spacing:0px;writing-mode:lr-tb;text-anchor:middle;fill:#ffffff;fill-opacity:1;stroke:none;stroke-width:0.4991388"
       xml:space="preserve"><tspan
         style="text-align:end;text-anchor:end;fill:#ffffff;stroke:none;stroke-width:0.5;-inkscape-font-specification:'ubuntu Bold';font-family:ubuntu;font-weight:bold;font-style:normal;font-stretch:normal;font-variant:normal"
         y="65"
         x="354"
         id="tspan853"
         sodipodi:role="line">__ade_explorer_version__</tspan></text>
    <path
       style="color:#000000;font-style:normal;font-variant:normal;font-weight:normal;font-stretch:normal;font-size:medium;line-height:normal;font-family:sans-serif;font-variant-ligatures:normal;font-variant-position:normal;font-variant-caps:normal;font-variant-numeric:normal;font-variant-alternates:normal;font-feature-settings:normal;text-indent:0;text-align:start;text-decoration:none;text-decoration-line:none;text-decoration-style:solid;text-decoration-color:#000000;letter-spacing:normal;word-spacing:normal;text-transform:none;writing-mode:lr-tb;direction:ltr;text-orientation:mixed;dominant-baseline:auto;baseline-shift:baseline;text-anchor:start;white-space:normal;shape-padding:0;clip-rule:nonzero;display:inline;overflow:visible;visibility:visible;opacity:1;isolation:auto;mix-blend-mode:normal;color-interpolation:sRGB;color-interpolation-filters:linearRGB;solid-color:#000000;solid-opacity:1;vector-effect:none;fill:#ffffff;fill-opacity:1;fill-rule:nonzero;stroke:#342144;stroke-width:1.99655533;stroke-linecap:round;stroke-linejoin:round;stroke-miterlimit:4;stroke-dasharray:none;stroke-dashoffset:0;stroke-opacity:1;color-rendering:auto;image-rendering:auto;shape-rendering:auto;text-rendering:auto;enable-background:accumulate"
       d="M 51.82456,0.47196814 A 4.9918875,4.9918873 0 0 0 47.476905,2.9954781 C 42.180565,12.313054 39.666425,19.077354 34.965185,27.610663 L 33.40659,27.492905 a 4.2431043,4.2431043 0 0 0 -0.421875,-0.01557 4.2431043,4.2431043 0 0 0 -2.48926,7.650339 c -3.07885,4.820161 -7.009,10.350242 -12.38574,17.104016 a 4.9919324,4.9919323 0 1 0 7.810545,6.218757 C 32.96284,49.604203 37.723955,42.61556 41.32456,36.600128 l 15.68457,1.180492 c 0.58168,3.271625 1.05757,6.61464 1.43457,10.024948 a 4.9918875,4.9918873 0 1 0 9.921875,-1.097771 C 67.929385,42.762063 67.36633,38.875402 66.66245,35.055657 A 4.2431043,4.2431043 0 0 0 65.92612,31.355545 C 63.826545,21.424268 60.71163,11.980767 56.26792,3.2056921 A 4.9918875,4.9918873 0 0 0 51.82456,0.47196814 Z m 59.18945,0.013623 a 4.9918875,4.9918873 0 0 0 -5.12207,4.86406166 4.2431043,4.2431043 0 0 0 2.61035,7.8070232 l 0.6377,-0.04282 c 1.23864,3.661873 2.20528,8.699451 2.50878,13.981011 0.46652,8.118153 -0.29557,16.896943 -1.64257,22.470252 a 4.9918875,4.9918873 0 0 0 7.73535,5.301028 l 22.67285,-0.931354 a 4.2431043,4.2431043 0 0 0 -0.0527,-8.48437 4.2431043,4.2431043 0 0 0 -0.29688,0.0058 l -19.26855,0.791213 c 0.6259,-4.198254 0.96566,-8.867249 0.97949,-13.632607 l 9.28515,-0.944005 a 4.2431043,4.2431043 0 0 0 -0.56445,-8.466854 4.2431043,4.2431043 0 0 0 -0.29492,0.02336 l -8.75195,0.891452 c -0.31942,-4.078899 -0.87537,-8.046676 -1.88184,-11.699829 L 139.8226,11.06916 A 4.2431043,4.2431043 0 0 0 139.55502,2.588678 4.2431043,4.2431043 0 0 0 139.2601,2.602306 L 116.02866,4.1516402 C 115.66359,3.5785395 115.28474,3.0171881 114.87143,2.4816277 A 4.9918875,4.9918873 0 0 0 111.01401,0.48559114 Z M 71.560885,4.8932191 a 4.9918875,4.9918873 0 0 0 -4.79492,6.0572059 c 2.56357,12.575565 6.672365,24.168145 5.646485,34.702422 a 4.9918875,4.9918873 0 0 0 1.76172,4.387192 4.2431043,4.2431043 0 0 0 6.005855,4.878659 C 92.5882,48.941453 100.61725,43.167031 105.31674,37.262877 110.01622,31.358724 111.1311,24.560901 108.43002,19.254756 105.72895,13.948616 100.3,10.562565 93.82456,8.3879898 88.96798,6.7570573 83.3935,5.8233668 77.46323,5.6435578 76.396205,5.6112095 75.31673,5.6062118 74.228855,5.6231234 a 4.9918875,4.9918873 0 0 0 -2.66797,-0.7299043 z m 6.168945,9.2600149 c 5.001295,0.203328 9.6198,1.01194 13.393555,2.279239 5.20871,1.749179 8.583975,4.393168 9.744135,6.672267 1.16017,2.279104 1.19398,4.621948 -2.189445,8.872678 C 95.918905,35.443881 90.71442,39.668467 82.521825,44.1765 83.01235,33.518386 80.012195,23.527535 77.72983,14.153234 Z m -26.284175,2.902088 c 1.45798,3.883508 2.69041,7.91502 3.725585,12.07743 l -9.302735,-0.700705 c 2.058665,-3.980882 3.76519,-7.653364 5.57715,-11.376725 z"
       id="path1051"
       inkscape:connector-curvature="0" />
    <path
       inkscape:connector-curvature="0"
       id="path2928"
       d="M 51.82456,0.47196814 A 4.9918875,4.9918873 0 0 0 47.476905,2.9954781 C 42.180565,12.313054 39.666425,19.077354 34.965185,27.610663 L 33.40659,27.492905 a 4.2431043,4.2431043 0 0 0 -0.421875,-0.01557 4.2431043,4.2431043 0 0 0 -2.48926,7.650339 c -3.07885,4.820161 -7.009,10.350242 -12.38574,17.104016 a 4.9919324,4.9919323 0 1 0 7.810545,6.218757 C 32.96284,49.604203 37.723955,42.61556 41.32456,36.600128 l 15.68457,1.180492 c 0.58168,3.271625 1.05757,6.61464 1.43457,10.024948 a 4.9918875,4.9918873 0 1 0 9.921875,-1.097771 C 67.929385,42.762063 67.36633,38.875402 66.66245,35.055657 A 4.2431043,4.2431043 0 0 0 65.92612,31.355545 C 63.826545,21.424268 60.71163,11.980767 56.26792,3.2056921 A 4.9918875,4.9918873 0 0 0 51.82456,0.47196814 Z m 59.18945,0.013623 a 4.9918875,4.9918873 0 0 0 -5.12207,4.86406166 4.2431043,4.2431043 0 0 0 2.61035,7.8070232 l 0.6377,-0.04282 c 1.23864,3.661873 2.20528,8.699451 2.50878,13.981011 0.46652,8.118153 -0.29557,16.896943 -1.64257,22.470252 a 4.9918875,4.9918873 0 0 0 7.73535,5.301028 l 22.67285,-0.931354 a 4.2431043,4.2431043 0 0 0 -0.0527,-8.48437 4.2431043,4.2431043 0 0 0 -0.29688,0.0058 l -19.26855,0.791213 c 0.6259,-4.198254 0.96566,-8.867249 0.97949,-13.632607 l 9.28515,-0.944005 a 4.2431043,4.2431043 0 0 0 -0.56445,-8.466854 4.2431043,4.2431043 0 0 0 -0.29492,0.02336 l -8.75195,0.891452 c -0.31942,-4.078899 -0.87537,-8.046676 -1.88184,-11.699829 L 139.8226,11.06916 A 4.2431043,4.2431043 0 0 0 139.55502,2.588678 4.2431043,4.2431043 0 0 0 139.2601,2.602306 L 116.02866,4.1516402 C 115.66359,3.5785395 115.28474,3.0171881 114.87143,2.4816277 A 4.9918875,4.9918873 0 0 0 111.01401,0.48559114 Z M 71.560885,4.8932191 a 4.9918875,4.9918873 0 0 0 -4.79492,6.0572059 c 2.56357,12.575565 6.672365,24.168145 5.646485,34.702422 a 4.9918875,4.9918873 0 0 0 1.76172,4.387192 4.2431043,4.2431043 0 0 0 6.005855,4.878659 C 92.5882,48.941453 100.61725,43.167031 105.31674,37.262877 110.01622,31.358724 111.1311,24.560901 108.43002,19.254756 105.72895,13.948616 100.3,10.562565 93.82456,8.3879898 88.96798,6.7570573 83.3935,5.8233668 77.46323,5.6435578 76.396205,5.6112095 75.31673,5.6062118 74.228855,5.6231234 a 4.9918875,4.9918873 0 0 0 -2.66797,-0.7299043 z m 6.168945,9.2600149 c 5.001295,0.203328 9.6198,1.01194 13.393555,2.279239 5.20871,1.749179 8.583975,4.393168 9.744135,6.672267 1.16017,2.279104 1.19398,4.621948 -2.189445,8.872678 C 95.918905,35.443881 90.71442,39.668467 82.521825,44.1765 83.01235,33.518386 80.012195,23.527535 77.72983,14.153234 Z m -26.284175,2.902088 c 1.45798,3.883508 2.69041,7.91502 3.725585,12.07743 l -9.302735,-0.700705 c 2.058665,-3.980882 3.76519,-7.653364 5.57715,-11.376725 z"
       style="color:#000000;font-style:normal;font-variant:normal;font-weight:normal;font-stretch:normal;font-size:medium;line-height:normal;font-family:sans-serif;font-variant-ligatures:normal;font-variant-position:normal;font-variant-caps:normal;font-variant-numeric:normal;font-variant-alternates:normal;font-feature-settings:normal;text-indent:0;text-align:start;text-decoration:none;text-decoration-line:none;text-decoration-style:solid;text-decoration-color:#000000;letter-spacing:normal;word-spacing:normal;text-transform:none;writing-mode:lr-tb;direction:ltr;text-orientation:mixed;dominant-baseline:auto;baseline-shift:baseline;text-anchor:start;white-space:normal;shape-padding:0;clip-rule:nonzero;display:inline;overflow:visible;visibility:visible;opacity:1;isolation:auto;mix-blend-mode:normal;color-interpolation:sRGB;color-interpolation-filters:linearRGB;solid-color:#000000;solid-opacity:1;vector-effect:none;fill:#ffffff;fill-opacity:1;fill-rule:nonzero;stroke:#442136;stroke-width:1.99655533;stroke-linecap:round;stroke-linejoin:round;stroke-miterlimit:4;stroke-dasharray:none;stroke-dashoffset:0;stroke-opacity:1;color-rendering:auto;image-rendering:auto;shape-rendering:auto;text-rendering:auto;enable-background:accumulate" />
    <flowRoot
       xml:space="preserve"
       id="flowRoot34"
       style="fill:black;fill-opacity:1;stroke:none;font-family:Belleza;font-style:normal;font-weight:normal;font-size:16px;line-height:1.25;letter-spacing:0px;word-spacing:0px;-inkscape-font-specification:'Belleza, Normal';font-stretch:normal;font-variant:normal;text-anchor:start;text-align:start;writing-mode:lr;font-variant-ligatures:normal;font-variant-caps:normal;font-variant-numeric:normal;font-feature-settings:normal"><flowRegion
         id="flowRegion36"><rect
           id="rect38"
           width="93.90699"
           height="41.839748"
           x="-190.6033"
           y="237.84158" /></flowRegion><flowPara
         id="flowPara40" /></flowRoot>  </g>
</svg>
