<?xml version="1.0" encoding="UTF-8" standalone="no"?>
<!-- Created with Inkscape (http://www.inkscape.org/) -->

<svg
   xmlns:dc="http://purl.org/dc/elements/1.1/"
   xmlns:cc="http://creativecommons.org/ns#"
   xmlns:rdf="http://www.w3.org/1999/02/22-rdf-syntax-ns#"
   xmlns:svg="http://www.w3.org/2000/svg"
   xmlns="http://www.w3.org/2000/svg"
   xmlns:sodipodi="http://sodipodi.sourceforge.net/DTD/sodipodi-0.dtd"
   xmlns:inkscape="http://www.inkscape.org/namespaces/inkscape"
   width="92mm"
   height="160mm"
   viewBox="0 0 92.000001 159.99999"
   version="1.1"
   id="svg859"
   sodipodi:docname="new_year.svg"
   inkscape:version="0.92.5 (2060ec1f9f, 2020-04-08)"
   inkscape:export-filename="/home/vincent/STORAGE_V/Seafile/ADEexplorer/src/resources/pix/new_year.png"
   inkscape:export-xdpi="69.021744"
   inkscape:export-ydpi="69.021744">
  <defs
     id="defs853">
    <filter
       inkscape:collect="always"
       style="color-interpolation-filters:sRGB"
       id="filter1618"
       x="-0.010070509"
       width="1.020141"
       y="-0.014844103"
       height="1.0296882">
      <feGaussianBlur
         inkscape:collect="always"
         stdDeviation="0.29565904"
         id="feGaussianBlur1620" />
    </filter>
    <filter
       inkscape:collect="always"
       style="color-interpolation-filters:sRGB"
       id="filter1626"
       x="-0.021919103"
       width="1.0438381"
       y="-0.02651744"
       height="1.0530349">
      <feGaussianBlur
         inkscape:collect="always"
         stdDeviation="0.36581003"
         id="feGaussianBlur1628" />
    </filter>
  </defs>
  <sodipodi:namedview
     id="base"
     pagecolor="#ffffff"
     bordercolor="#666666"
     borderopacity="1.0"
     inkscape:pageopacity="0.0"
     inkscape:pageshadow="2"
     inkscape:zoom="6.0372506"
     inkscape:cx="207.50623"
     inkscape:cy="254.38323"
     inkscape:document-units="mm"
     inkscape:current-layer="layer1"
     showgrid="false"
     inkscape:snap-global="false"
     inkscape:window-width="1556"
     inkscape:window-height="836"
     inkscape:window-x="44"
     inkscape:window-y="27"
     inkscape:window-maximized="1" />
  <metadata
     id="metadata856">
    <rdf:RDF>
      <cc:Work
         rdf:about="">
        <dc:format>image/svg+xml</dc:format>
        <dc:type
           rdf:resource="http://purl.org/dc/dcmitype/StillImage" />
        <dc:title />
      </cc:Work>
    </rdf:RDF>
  </metadata>
  <g
     inkscape:label="Calque 1"
     inkscape:groupmode="layer"
     id="layer1"
     transform="translate(-75.711884,-35.455563)">
    <path
       style="opacity:1;vector-effect:none;fill:#eaeaea;fill-opacity:1;stroke:none;stroke-width:0.26458332px;stroke-linecap:butt;stroke-linejoin:miter;stroke-miterlimit:4;stroke-dasharray:none;stroke-dashoffset:0;stroke-opacity:1;filter:url(#filter1618)"
       d="m 87.176526,101.77038 -5.350542,1.35648 -3.541906,1.05503 c 0,0 6.510586,27.19313 15.900904,36.62484 5.11072,5.13325 12.668038,8.25063 19.894968,8.74173 6.56838,0.44635 12.40714,-5.43425 18.99066,-5.4259 5.43798,0.007 15.67482,4.52158 15.67482,4.52158 l -4.6723,-9.57069 c -16.16101,-3.04827 -31.73868,-7.99234 -47.099838,-13.64011 z"
       id="path1496"
       inkscape:connector-curvature="0"
       sodipodi:nodetypes="cccssscccc" />
    <path
       style="fill:#eaeaea;fill-opacity:1;stroke:none;stroke-width:0.26458332px;stroke-linecap:butt;stroke-linejoin:miter;stroke-opacity:1;filter:url(#filter1626)"
       d="m 103.83695,51.722275 c 8.73453,9.12512 16.64992,9.418789 24.83192,12.281956 -14.70108,-1.546194 -29.671108,-2.752613 -40.053828,20.826221 2.69004,-11.296786 5.83412,-24.333083 15.221908,-33.108177 z"
       id="path1494"
       inkscape:connector-curvature="0"
       sodipodi:nodetypes="cccc" />
    <path
       id="path1421"
       style="fill:#000000;stroke-width:0.26458335"
       d="m 94.860122,123.60694 c -2.05462,-2.27421 -4.6955,-8.87504 -6.49698,-16.23907 l -1.218705,-4.98178 -1.26923,0.1639 c -0.698074,0.0902 -3.555574,0.88037 -6.35,1.75604 -6.376368,1.99813 -11.949213,2.89528 -12.163901,1.95821 -0.03503,-0.15288 1.056446,-0.34939 2.585214,-0.46546 2.804393,-0.2129 5.966,-1.00976 9.657292,-2.43403 1.910194,-0.73704 3.955214,-1.30263 6.818673,-1.88583 0.58121,-0.11837 0.595336,-0.1899 0.429717,-2.175809 -0.202165,-2.42413 0.264364,-8.299715 0.9727,-12.250455 0.53842,-3.003037 2.12438,-8.543428 4.0436,-14.125919 3.95761,-11.511637 8.07712,-19.516045 11.059918,-21.489967 l 1.0272,-0.67977 1.78086,1.707187 c 6.35966,6.096532 14.64798,9.106056 32.60483,11.838953 7.53518,1.146795 11.29765,1.559852 18.25625,2.00423 7.65925,0.489119 9.495,0.668234 9.66481,0.942993 0.29184,0.4722 -1.14419,0.538306 -5.62828,0.259091 -19.144,-1.192059 -30.05825,-2.642759 -38.81453,-5.159145 -7.42562,-2.133981 -11.56082,-4.253069 -15.37368,-7.87826 -1.33923,-1.273307 -2.55592,-2.315104 -2.70376,-2.315104 -0.53027,0 -3.22461,3.207949 -4.716578,5.615686 -3.05342,4.927589 -5.72962,11.594306 -8.44467,21.036579 -3.222273,11.20629 -3.648358,16.503725 -1.95667,24.32683 1.09867,5.08071 3.8085,12.39801 6.47595,17.48691 0.93587,1.78542 1.70158,3.42253 1.70158,3.63802 0,0.73075 -0.99263,0.39639 -1.94161,-0.65403 z m 67.648178,14.57884 c -2.78838,-2.21905 -7.35646,-7.10048 -8.6363,-9.22868 -3.20793,-5.33441 -4.68529,-11.49273 -4.6806,-19.51092 0.004,-6.47081 1.04274,-12.959159 3.07271,-19.189234 2.44497,-7.503732 6.77009,-14.411011 13.29531,-21.232813 0.93956,-0.982266 1.80782,-1.785938 1.92947,-1.785938 0.56264,0 0.0757,0.828469 -1.63331,2.778601 -6.45991,7.371565 -8.97215,11.318092 -11.78634,18.51536 -2.40467,6.149946 -3.55698,12.093764 -3.74542,19.319584 -0.1477,5.66384 0.24165,9.60584 1.38796,14.05226 1.35422,5.25288 3.72572,8.82476 9.4549,14.24067 3.17803,3.00426 3.86484,4.04915 1.34162,2.04111 z m -60.6729,45.21664 c 0.68064,-0.39873 5.61803,-1.80429 12.69341,-3.61352 3.71078,-0.94887 8.81775,-2.43453 11.34882,-3.30147 4.10301,-1.40536 5.67191,-1.75992 4.51852,-1.02117 -0.86958,0.55698 -9.57576,3.25004 -16.66109,5.15375 -11.45734,3.07839 -13.03438,3.44714 -11.89966,2.78241 z m -5.194858,6.02714 c -6.46788,-5.52048 -8.25498,-8.39626 -17.893242,-28.79345 -8.261458,-17.4835 -8.540647,-18.18658 -11.977455,-30.1625 -1.566039,-5.45703 -2.976779,-10.0047 -3.134979,-10.10593 -0.205383,-0.13143 -0.194828,-0.50973 0.0369,-1.32292 0.178496,-0.62637 0.979001,-3.62952 1.778903,-6.67367 0.799901,-3.04415 1.496578,-5.57703 1.548175,-5.62862 0.05159,-0.0516 0.282532,-0.0214 0.513193,0.0671 0.423551,0.16253 1.437455,2.38277 2.725211,5.96766 0.385983,1.07451 1.08951,2.72756 1.563389,3.67344 0.943925,1.88412 1.84404,4.78204 1.657694,5.33694 -0.06495,0.19338 -0.269481,-0.12464 -0.45453,-0.70673 -0.18505,-0.58208 -0.811451,-1.9513 -1.392005,-3.04271 -1.079556,-2.02949 -3.33542,-7.26672 -3.910957,-9.0797 -0.176332,-0.55545 -0.380593,-0.94993 -0.453911,-0.87661 -0.07332,0.0733 0.229743,1.24216 0.67347,2.59742 0.443727,1.35526 0.940046,2.99988 1.102934,3.65473 0.162888,0.65484 1.129239,2.95359 2.147448,5.10833 1.133626,2.39899 1.80666,4.14263 1.736165,4.49792 -0.111784,0.56336 -0.121166,0.561 -0.323147,-0.0812 -0.114411,-0.3638 -1.007827,-2.20927 -1.98537,-4.10104 -0.97754,-1.89177 -1.861555,-3.73724 -1.964473,-4.10105 -0.4842,-1.71157 -1.825291,-5.02708 -2.033405,-5.02708 -0.128156,0 -0.03413,0.44649 0.208945,0.99219 0.243075,0.5457 0.676727,1.70656 0.96367,2.57969 0.71881,2.18722 1.664952,4.61599 2.834434,7.27604 1.757508,3.99754 1.707846,5.54092 -0.06114,1.90019 -1.485117,-3.0565 -4.433096,-9.77068 -4.460261,-10.15848 -0.01312,-0.18737 -0.135403,0.0456 -0.271732,0.51762 -0.184015,0.63719 -0.150122,1.01207 0.131569,1.45521 0.554143,0.87175 4.661943,13.65969 4.661943,14.51304 0,1.084 -1.38071,-2.4616 -4.105482,-10.54269 -0.551997,-1.63711 -1.079341,-2.97656 -1.171871,-2.97656 -0.09253,0 -0.370086,0.75752 -0.616792,1.68337 -0.397009,1.48993 -0.405672,1.81678 -0.07539,2.84427 0.205245,0.6385 0.930042,3.18497 1.610667,5.65882 1.809213,6.57593 3.67044,12.63383 4.758235,15.48704 0.856324,2.24608 3.758888,8.48422 9.954493,21.39406 1.144854,2.38554 2.081553,4.38913 2.081553,4.45241 0,0.15038 4.853261,9.37832 5.744061,10.9217 2.65151,4.59393 4.84493,7.35215 7.7078,9.69254 1.56705,1.28106 1.81208,1.3681 1.94896,0.69236 0.093,-0.45919 -1.82937,-2.26207 -2.18056,-2.04502 -0.0921,0.0569 -0.16987,-0.0401 -0.17278,-0.21558 -0.008,-0.50215 -2.73825,-4.29618 -3.03291,-4.21514 -0.14537,0.04 -0.19043,-0.0468 -0.10013,-0.19297 0.0903,-0.14612 0.0354,-0.50626 -0.12193,-0.80031 -0.62502,-1.16786 0.25273,-0.43931 1.34816,1.11902 0.63935,0.9095 1.93135,2.42755 2.87112,3.37343 l 1.70867,1.71979 0.16734,-0.81684 c 0.092,-0.44927 0.25878,-0.9648 0.37054,-1.14563 0.12625,-0.20428 -0.0331,-0.49412 -0.4208,-0.76544 -0.3432,-0.24016 -1.05278,-0.82382 -1.57685,-1.29701 -0.52406,-0.4732 -1.04916,-0.7732 -1.16689,-0.66668 -0.11773,0.10653 -0.141,0.0652 -0.0517,-0.0918 0.0893,-0.157 -0.17476,-0.69442 -0.58678,-1.19426 -1.07754,-1.30725 -3.75907,-5.79633 -3.46241,-5.79633 0.13771,0 0.74385,0.6536 1.34699,1.45246 0.60314,0.79885 1.18887,1.39544 1.30162,1.32576 0.11274,-0.0697 0.18867,0.0374 0.16872,0.23804 -0.0464,0.46694 3.58993,4.79026 4.38762,5.21649 0.35434,0.18934 0.0292,-0.30605 -0.78804,-1.20079 -1.44278,-1.57954 -3.66794,-5.10369 -3.3949,-5.37674 0.0858,-0.0858 0.19064,-0.10631 0.23307,-0.0457 0.0424,0.0606 0.38692,0.59451 0.76552,1.18639 0.88008,1.37585 3.62063,4.6124 3.90556,4.6124 0.119438,0 0.273928,-0.2969 0.343288,-0.65978 0.13071,-0.68376 -0.346828,-1.33553 -0.726508,-0.99157 -0.11908,0.10788 -0.13785,0.0586 -0.0417,-0.10946 0.0961,-0.16807 -0.21961,-0.77767 -0.70167,-1.35465 -0.48205,-0.57699 -1.26811,-1.6594 -1.7468,-2.40536 -0.47868,-0.74596 -0.96905,-1.29529 -1.08971,-1.22071 -0.12066,0.0746 -0.30553,-0.004 -0.41083,-0.1742 -0.11957,-0.19347 -0.0768,-0.2389 0.11401,-0.12099 0.168,0.10383 0.30546,0.14307 0.30546,0.0872 0,-0.0559 -0.73103,-1.40235 -1.62452,-2.99217 -4.39117,-7.81343 -13.264528,-28.37193 -18.18646,-42.13586 -1.89466,-5.29832 -1.816021,-6.63651 0.191431,-3.25747 1.768486,2.9768 3.573844,7.0557 9.560661,21.60065 5.094508,12.37709 6.160698,14.81139 9.278518,21.18451 2.70341,5.52603 4.877408,9.1 5.971428,9.81683 0.49145,0.32201 0.99641,0.37866 2.18084,0.24466 3.31283,-0.37481 17.11242,-4.18227 15.75387,-4.34668 -1.38808,-0.16798 -8.48867,0.4796 -10.97298,1.00074 -1.37252,0.28791 -3.3738,0.71113 -4.44729,0.94047 -3.36846,0.71965 -2.74989,-0.22818 0.76848,-1.17754 3.48522,-0.94042 17.35073,-3.15983 23.27602,-3.72574 1.67349,-0.15982 3.82507,-0.52117 4.78128,-0.80298 1.87884,-0.55373 3.01495,-0.66138 2.76831,-0.2623 -0.14794,0.23936 -9.08359,3.20009 -15.48709,5.13149 -5.27141,1.58994 -17.13679,4.67259 -17.98517,4.67259 -0.62708,0 -0.87173,0.15358 -1.06832,0.67063 -0.14023,0.36885 -0.23745,0.75581 -0.21603,0.8599 0.042,0.20428 -0.16134,0.78284 -0.722538,2.0554 -0.19594,0.44429 -0.41683,1.426 -0.49087,2.18158 -0.15183,1.54931 -0.5346,2.43457 -1.05267,2.43457 -0.19267,0 -0.93262,-0.49702 -1.64433,-1.10447 z m 0.40527,-64.62056 c -0.13582,0.006 -0.21489,0.0519 -0.26406,0.12919 -0.13116,0.20679 -0.19402,0.50003 -0.13901,0.65164 0.008,0.0219 0.0109,0.0487 0.0119,0.078 5.261078,2.49469 10.400978,4.68913 15.611958,6.42803 -10e-4,-0.0208 0.002,-0.0346 0.0114,-0.0346 0.0556,0 2.22148,0.58582 4.81366,1.30225 7.45388,2.06013 17.07046,4.30875 23.9081,5.59035 l 3.05563,0.57258 4.79764,9.56272 c 2.63866,5.25938 5.2122,10.24515 5.71954,11.07943 1.00621,1.65461 1.36167,2.81571 1.10691,3.61838 -0.1005,0.31663 -1.15879,1.02003 -2.73213,1.81694 -3.36507,1.70445 -5.14099,2.39803 -10.2402,3.99769 -2.32834,0.73042 -4.47146,1.5177 -4.7625,1.74977 -0.50454,0.40231 -0.48606,0.41448 0.39687,0.25941 0.76073,-0.13362 10.44575,-2.79278 15.41198,-4.23178 l 1.25677,-0.36432 v 1.02526 c 0,1.001 -0.0348,1.03753 -1.46606,1.57303 -0.80611,0.30161 -3.87197,1.14614 -6.81302,1.87637 -2.94105,0.73022 -5.58509,1.43647 -5.87612,1.56942 -0.90976,0.41557 0.9036,0.33395 2.39933,-0.10801 1.04652,-0.30921 5.15868,-1.28246 10.36681,-2.45308 0.32742,-0.0736 0.59531,-0.0236 0.59531,0.11111 0,0.85488 -0.94385,1.23003 -6.86056,2.728 -3.40488,0.86204 -6.32006,1.70492 -6.47816,1.87275 -0.44375,0.47107 1.67737,0.10331 7.21352,-1.25057 2.67029,-0.65303 4.91019,-1.13182 4.97799,-1.06402 0.23762,0.23762 -0.44281,2.21324 -0.90227,2.61948 -0.25528,0.22571 -1.1189,0.48973 -1.91927,0.58653 -4.40589,0.5329 -8.83189,1.82718 -37.57083,10.98589 -3.1287,0.99708 -7.17682,2.12657 -8.99583,2.51044 -3.45503,0.72912 -4.874008,1.32416 -4.202328,1.76217 0.20109,0.1311 0.842108,0.16913 1.424198,0.0842 1.28286,-0.18714 13.89778,-4.03489 27.38438,-8.35246 13.10307,-4.19479 17.58308,-5.46328 20.48195,-5.79913 3.86414,-0.44768 4.09339,-0.50663 4.75733,-1.22266 0.47521,-0.51249 0.74373,-1.31478 1.07952,-3.22875 0.24576,-1.40088 0.56128,-2.76197 0.70125,-3.02462 0.13996,-0.26265 0.32268,-1.27468 0.40618,-2.24896 0.0847,-0.98784 0.37277,-2.1589 0.65061,-2.64686 0.71634,-1.25808 0.62805,-1.86131 -0.55191,-3.77342 -1.94954,-3.15917 -11.02113,-21.07148 -10.789,-21.30361 0.0409,-0.0409 1.56064,0.15325 3.37705,0.4315 7.4168,1.13614 13.85385,1.22335 17.51418,0.23771 1.77214,-0.47718 1.16841,-0.81764 -1.04852,-0.59118 -3.24018,0.33101 -10.21432,0.18248 -13.79089,-0.29403 -7.87457,-1.04913 -24.49355,-4.84376 -34.29713,-7.83105 -5.76492,-1.75666 -11.76267,-3.88368 -16.22846,-5.7552 -2.175458,-0.91168 -3.096218,-1.25022 -3.503658,-1.23197 z"
       inkscape:connector-curvature="0" />
    <path
       id="path1415"
       style="fill:#950200;fill-opacity:1;stroke-width:0.26458335"
       d="m 108.77998,115.82209 c -3.65784,-0.92904 -7.08453,-3.64578 -8.65989,-6.8657 -0.876928,-1.79237 -1.346568,-4.39462 -1.094528,-6.06458 0.16135,-1.06901 0.29434,-1.28207 0.89427,-1.43264 0.927018,-0.23267 3.879878,0.28307 4.700938,0.82105 0.35619,0.23339 0.64762,0.67902 0.64762,0.9903 0,1.05694 0.88572,3.38159 1.63456,4.29006 0.9288,1.1268 3.18216,2.27553 4.46368,2.27553 1.33384,0 2.66866,-0.94929 2.97629,-2.11667 0.35288,-1.3391 0.0565,-4.39925 -0.58941,-6.08541 -1.23628,-3.227369 -4.03554,-5.001479 -9.6096,-6.090331 l -1.52135,-0.297188 0.0232,-1.767179 c 0.0128,-0.971946 0.10204,-2.352214 0.19844,-3.067256 l 0.17525,-1.30008 1.85209,-0.768245 c 2.99232,-1.241218 6.48229,-2.922225 6.48229,-3.122313 0,-0.201062 -1.39499,-0.723268 -6.05197,-2.265511 l -3.00926,-0.996572 0.15419,-1.473602 c 0.0848,-0.810479 0.3009,-2.108779 0.4802,-2.885112 l 0.326,-1.411512 1.20615,0.173053 c 2.42095,0.347348 10.94018,3.492379 12.85025,4.743903 0.47801,0.313206 0.65846,0.666318 0.65696,1.285605 -0.003,1.336611 -0.95057,4.962528 -1.41891,5.430869 -0.23249,0.23249 -1.81697,1.153152 -3.52107,2.045917 -1.70409,0.892768 -3.14172,1.753299 -3.19472,1.912292 -0.053,0.158996 1.09629,0.901703 2.55397,1.650461 1.99459,1.024554 2.99673,1.735653 4.05041,2.874102 2.69241,2.90901 4.00653,6.361669 3.99187,10.488069 -0.011,3.09199 -0.70976,5.02235 -2.44689,6.75948 -2.09926,2.09926 -6.04183,3.0716 -9.20101,2.26921 z m 28.94673,5.55608 c -0.99287,-0.33832 -2.04409,-0.85399 -2.33605,-1.14595 -0.74746,-0.74746 -2.68251,-6.23243 -3.52489,-9.99141 -1.0364,-4.62479 -1.44245,-8.08865 -1.63701,-13.964589 -0.0952,-2.874041 -0.24353,-5.225465 -0.32971,-5.225393 -0.0862,7.4e-5 -0.77633,0.235643 -1.53366,0.523489 -0.81595,0.310128 -1.44056,0.420438 -1.53307,0.270753 -0.27881,-0.45112 -0.4696,-2.839331 -0.29934,-3.746897 0.14507,-0.773327 0.53845,-1.13058 3.1354,-2.847475 3.68256,-2.434611 4.10376,-2.605392 5.2524,-2.12961 1.2177,0.504386 2.62678,1.796709 2.62678,2.409113 0,0.280556 -0.23708,1.213858 -0.52684,2.074 -1.05493,3.131505 -0.95956,8.80501 0.28919,17.204829 0.67904,4.56757 1.26393,7.05137 2.91162,12.36453 0.73253,2.36211 1.25697,4.41594 1.16542,4.56406 -0.27201,0.44012 -1.73546,0.2964 -3.66024,-0.35945 z"
       inkscape:connector-curvature="0" />
    <g
       aria-label="S"
       style="font-style:normal;font-variant:normal;font-weight:normal;font-stretch:normal;font-size:8.89403725px;line-height:1.25;font-family:Belleza;-inkscape-font-specification:'Belleza, Normal';font-variant-ligatures:normal;font-variant-caps:normal;font-variant-numeric:normal;font-feature-settings:normal;text-align:start;letter-spacing:0px;word-spacing:0px;writing-mode:lr-tb;text-anchor:start;fill:#000000;fill-opacity:1;stroke:none;stroke-width:0.55587733"
       id="text1600"
       transform="translate(-12.222968,-3.9665986)">
      <path
         id="path1602"
         style="stroke-width:0.55587733"
         d="m 112.2455,174.85395 c 0.32485,1.31986 2.41067,0.59267 3.04581,2.13369 0.50819,1.1852 -0.0557,2.09758 -1.87106,2.48965 -0.33241,0.12654 -1.83834,0.26426 -1.07588,-0.6026 0.58114,-0.68241 1.78768,-0.0741 1.65175,-1.30109 -0.35588,-1.38404 -1.73972,-0.84141 -2.6123,-1.6999 -1.13289,-0.97004 -0.0157,-2.6619 1.40534,-2.88063 1.1362,-0.22053 1.97683,0.78879 0.76927,0.84995 -0.70235,-0.0336 -1.45867,0.36932 -1.31293,1.01093 z m 17.31866,0.0713 c -0.0423,-0.71159 -0.15023,-0.93564 -0.56213,-1.89774 -0.62346,-1.4561 -0.98762,-2.00494 -1.66533,-1.93692 -1.48463,0.44156 -1.64432,-0.4962 0.2431,-1.06494 1.48143,-0.71286 2.24643,-0.90694 2.49183,-0.63219 0.15077,0.16878 0.0504,0.39053 -0.32291,0.71298 -0.29796,0.2574 -0.54697,0.53321 -0.55338,0.61291 -0.006,0.0797 0.29003,0.9085 0.65875,1.84177 0.78292,1.98166 1.30584,1.93816 0.5517,2.49641 -0.85302,0.63145 -0.83508,-0.022 -0.84163,-0.13228 z m 0,0 c -0.0423,-0.71159 -0.15023,-0.93564 -0.56213,-1.89774 -0.62346,-1.4561 -0.98762,-2.00494 -1.66533,-1.93692 -1.48463,0.44156 -1.64432,-0.4962 0.2431,-1.06494 1.48143,-0.71286 2.24643,-0.90694 2.49183,-0.63219 0.15077,0.16878 0.0504,0.39053 -0.32291,0.71298 -0.29796,0.2574 -0.54697,0.53321 -0.55338,0.61291 -0.006,0.0797 0.29003,0.9085 0.65875,1.84177 0.78292,1.98166 1.30584,1.93816 0.5517,2.49641 -0.85302,0.63145 -0.83508,-0.022 -0.84163,-0.13228 z m -6.92425,1.0848 c -0.11783,-0.58975 -0.46183,-1.65803 -0.76445,-2.37395 -0.83135,-1.96675 -0.72735,-2.30378 0.84077,-2.72497 1.76814,-0.4749 2.29157,-0.39711 2.91334,0.43297 0.64051,0.85508 0.81356,1.86912 0.41914,2.45597 -0.38067,0.35662 -0.55376,0.44596 -1.82306,0.77256 -0.43231,0.0464 -0.49728,0.33925 -0.42259,1.90441 0.02,0.41966 -0.0902,0.55798 -0.46129,0.57842 -0.40532,0.0223 -0.52377,-0.1541 -0.70186,-1.04541 z m 1.40345,-2.38181 c 0.898,-0.16211 1.3696,-0.80253 1.13786,-1.54524 -0.20204,-0.64755 -2.64579,-0.46444 -2.6994,0.20227 -0.038,0.47211 0.30413,1.47291 0.50861,1.48794 0.0976,0.007 0.57147,-0.0581 1.05293,-0.14497 z m 28.08835,-5.09198 c -0.52524,-0.64616 -1.83375,-4.09884 -1.75232,-4.62388 0.0325,-0.21012 0.2989,-0.41273 0.77353,-0.58849 2.03939,-0.75521 3.92992,0.18797 3.68664,1.83923 -0.0624,0.42562 0.19344,0.76823 0.86646,1.15859 0.99725,0.57842 1.12379,0.90429 0.51111,1.31608 -0.66247,0.44522 -1.23392,0.36922 -1.78506,-0.23743 -0.6538,-0.71967 -1.38207,-0.58627 -1.2788,0.23426 0.11743,0.93303 0.0893,1.09449 -0.22667,1.2997 -0.16965,0.11019 -0.52735,-0.0689 -0.79489,-0.39802 z m 1.7443,-3.18621 c 0.0738,-0.47676 -0.72963,-1.26874 -1.30579,-1.28699 -0.71666,-0.0226 -0.80745,0.26613 -0.42022,1.33665 0.22109,0.61122 0.37252,0.6826 0.97488,0.45953 0.39222,-0.14524 0.73023,-0.37438 0.75113,-0.50919 z m 4.31007,1.96586 c -0.0944,-0.21795 -0.57372,-1.32086 -1.0651,-2.45093 -0.99143,-2.28006 -1.06938,-3.05995 -0.33871,-3.38883 0.25533,-0.11492 0.52287,-0.14063 0.59452,-0.0571 0.0716,0.0835 0.54291,-0.0339 1.04728,-0.26091 0.61555,-0.27706 0.95561,-0.32067 1.03443,-0.1327 0.21334,0.5089 0.0937,0.67722 -0.75197,1.05785 -0.883,0.39743 -0.91851,0.45065 -0.75222,1.1278 0.0819,0.33335 0.27756,0.34859 0.89685,0.0701 0.8208,-0.36944 1.58743,-0.21227 1.40261,0.28756 -0.0582,0.15746 -0.34885,0.48915 -0.64587,0.73711 -0.29701,0.24794 -0.55219,0.60217 -0.56706,0.78715 -0.0471,0.58588 0.61741,0.98178 1.20442,0.71757 0.87853,-0.39541 1.30321,-0.36738 1.26694,0.0837 -0.0292,0.36333 -0.2221,0.49836 -1.59383,1.11578 -1.39637,0.62849 -1.57867,0.66067 -1.73231,0.30617 z m -11.76532,3.1986 c -0.46007,-1.1074 -1.43404,-2.96674 -1.78724,-3.41187 -0.22012,-0.2774 -0.33319,-0.66353 -0.25127,-0.85807 0.1796,-0.42655 1.19857,-1.30408 1.8599,-1.60174 1.27527,-0.574 2.69026,0.19815 2.33974,1.27687 -0.0954,0.29348 0.0479,0.48329 0.40696,0.53915 0.81908,0.12745 1.24411,1.02847 0.97329,2.06336 -0.24203,0.92488 -0.27316,0.95087 -2.21265,1.84715 -0.99083,0.45789 -1.18979,0.47958 -1.32873,0.14515 z m 2.67384,-2.11862 c 0.0542,-0.20574 -0.10752,-0.53546 -0.35926,-0.73274 -0.3375,-0.26449 -0.67301,-0.26179 -1.27748,0.0103 -1.01974,0.45898 -1.14533,1.02733 -0.3315,1.50018 0.61256,0.35591 1.79261,-0.11037 1.96824,-0.77772 z m -1.77861,-1.98104 c 0.4178,-0.44316 0.41663,-0.4894 -0.021,-0.83237 -0.46139,-0.36157 -1.43781,-0.12634 -1.75687,0.42334 -0.26035,0.44852 0.44505,1.27907 0.90899,1.07027 0.23458,-0.10559 0.62558,-0.40314 0.86888,-0.66123 z m -10.00081,4.32811 c -0.47313,-1.41993 -0.79168,-2.74449 -0.70789,-2.94349 0.29246,-0.69455 0.87596,-0.6794 1.70546,0.0443 1.40233,1.22339 1.46881,1.20808 2.27169,-0.52331 0.75532,-1.62884 1.51746,-2.28184 1.74551,-1.49552 0.0668,0.23037 0.51391,1.20764 0.99354,2.17174 0.94723,1.90395 1.04751,2.61322 0.39511,2.79472 -0.23758,0.0662 -0.75757,-0.48139 -1.27052,-1.33769 -0.89572,-1.49532 -1.32088,-1.68158 -1.40654,-0.6162 -0.0271,0.33733 -0.21892,0.87352 -0.42621,1.19151 -0.36335,0.5574 -0.41058,0.56308 -1.31459,0.15839 -0.51576,-0.23087 -0.89556,-0.29669 -0.84404,-0.14632 0.80245,2.34334 0.81236,2.79124 0.0692,3.12573 -0.23895,0.10755 -0.62426,-0.66389 -1.21072,-2.42392 z m -3.63718,3.70435 c -1.25817,0.10405 -1.27647,0.0917 -1.56079,-1.05375 -0.15825,-0.63746 -0.52728,-1.61279 -0.82009,-2.16737 -0.43685,-0.8274 -0.47947,-1.1348 -0.23753,-1.71302 0.30841,-0.73709 0.62176,-0.89435 2.13322,-1.07067 0.29631,-0.0346 0.85463,-0.20501 1.24072,-0.37879 0.51651,-0.23248 0.69362,-0.21211 0.67037,0.0771 -0.0493,0.61253 -0.56624,1.13879 -1.55667,1.58458 -0.61253,0.27569 -0.91676,0.50716 -0.93306,0.70988 -0.0348,0.43243 0.39806,0.50852 1.53434,0.26976 0.732,-0.15381 0.98766,-0.0986 0.96301,0.20805 -0.0403,0.50167 -0.68582,1.13665 -1.28718,1.26623 -0.49935,0.10762 -0.52237,0.17244 -0.27422,0.77247 0.1354,0.3274 0.41729,0.36688 1.11875,0.15677 0.51578,-0.15451 1.12477,-0.22989 1.35332,-0.1675 0.40259,0.10992 0.40024,0.1302 -0.0751,0.64994 -0.62813,0.68689 -0.74273,0.73014 -2.26915,0.85635 z m -14.28537,3.51445 c -0.38191,0.0191 -1.00371,0.0918 -1.38178,0.1614 -0.62607,0.11531 -0.72908,-0.0261 -1.15469,-1.58595 -0.25701,-0.94191 -0.62862,-1.8839 -0.82577,-2.09335 -0.19716,-0.20943 -0.33845,-0.6299 -0.31397,-0.93438 0.0494,-0.61476 0.35105,-0.81116 1.70283,-1.10878 0.45176,-0.0994 1.11249,-0.2535 1.46831,-0.34235 0.72864,-0.18192 0.82601,0.37198 0.19222,1.09349 -0.32339,0.36816 -0.46433,0.40027 -0.83104,0.18936 -0.62291,-0.35829 -0.93467,-0.14207 -0.91301,0.63333 0.0168,0.60186 0.12159,0.64268 1.07589,0.4194 0.78976,-0.18479 1.06637,-0.14022 1.09332,0.17619 0.0269,0.31588 -0.15374,0.56576 -0.71066,0.98299 -0.98931,0.74117 -0.80678,1.18744 0.34336,0.83945 1.40732,-0.42582 1.45142,-0.40915 1.37666,0.5206 -0.0776,0.96535 -0.11265,0.9981 -1.12167,1.04864 z"
         inkscape:connector-curvature="0" />
    </g>
    <path
       id="path1709"
       style="font-style:normal;font-variant:normal;font-weight:normal;font-stretch:normal;font-size:5.39877892px;line-height:1.25;font-family:Belleza;-inkscape-font-specification:'Belleza, Normal';font-variant-ligatures:normal;font-variant-caps:normal;font-variant-numeric:normal;font-feature-settings:normal;text-align:start;letter-spacing:0px;word-spacing:0px;writing-mode:lr-tb;text-anchor:start;fill:#000000;fill-opacity:1;stroke:none;stroke-width:0.48473841"
       d="m 129.48615,129.10174 c -1.52041,-1.9012 -3.63859,-8.63936 -2.51121,-7.98846 0.21486,0.12405 0.73086,1.28876 1.22067,2.75527 1.31396,3.93408 1.55642,4.40432 2.57355,4.99157 0.49919,0.28821 0.93731,0.38476 1.01653,0.224 0.0766,-0.15533 -0.28433,-1.5775 -0.80205,-3.16031 -0.92941,-2.84148 -1.17406,-4.23231 -0.69592,-3.95625 0.50613,0.29222 2.66505,6.69377 2.66505,7.90234 0,0.60491 -0.19966,0.79431 -0.85991,0.81567 -1.10396,0.0357 -1.50768,-0.20955 -2.60671,-1.58389 z m -13.42152,-4.96693 c 0.19032,-0.0804 -1.35903,-3.17052 -1.68366,-3.35795 -0.27639,-0.15957 -0.49906,1.8093 -0.28255,2.49848 0.10144,0.32295 0.34531,0.4912 0.97866,0.67522 0.46395,0.13481 0.90835,0.21772 0.98755,0.18426 z m -3.39012,0.61777 c 0.001,-1.717 0.52287,-5.53936 0.84374,-6.18001 l 0.26226,-0.52363 1.18539,2.0073 c 1.93426,3.2754 4.33996,7.95183 4.17759,8.12081 -0.28083,0.29226 -1.02306,-0.34287 -1.56886,-1.34248 -0.52577,-0.96294 -0.58473,-1.00834 -1.86202,-1.43372 -1.62425,-0.54094 -1.90096,-0.49323 -2.11682,0.36494 -0.28573,1.13594 -0.92214,0.43603 -0.92128,-1.01321 z m 11.90747,1.95831 c 0,-0.80543 -0.22752,-1.49757 -0.77716,-2.36428 -0.79153,-1.2481 -2.19596,-2.60188 -2.89098,-2.5389 -1.80686,0.46633 1.12294,4.86725 2.24704,5.64144 0.22031,0.22029 0.63018,0.40053 0.91084,0.40057 0.42493,-1e-5 0.51026,-0.19045 0.51026,-1.13883 z m -1.4553,2.1014 c -0.99592,-0.442 -1.2261,-0.63069 -2.17036,-2.11282 -0.63478,-0.95618 -0.94879,-1.49434 -1.42627,-2.37431 -1.02287,-1.885 -0.61921,-3.96122 0.0868,-4.09719 0.75093,-0.14462 3.60695,1.54744 4.69138,2.77946 1.33672,1.51861 2.10693,4.12344 1.55892,5.27225 -0.42379,0.88842 -1.47752,1.09323 -2.74054,0.53266 z m 13.88945,2.29109 c -0.0521,-1.00549 -0.18221,-1.38865 -0.67879,-2.99771 -0.7516,-2.43529 -1.19003,-3.44409 -2.00388,-3.82766 -1.78229,-0.43907 -1.97588,-1.83732 0.28994,-1.28921 1.77793,0.0649 2.6964,0.33695 2.99165,0.88637 0.1814,0.3375 0.0612,0.5709 -0.38647,0.75043 -0.35737,0.14333 -0.65594,0.34631 -0.66348,0.45109 -0.008,0.10481 0.35008,1.44981 0.79473,2.98895 0.94415,3.26815 1.57213,3.57644 0.66742,3.8113 -1.02333,0.26567 -1.00303,-0.61774 -1.01112,-0.77355 z m -10.07861,-10.68282 c -0.53441,0.0638 -0.8282,-0.20411 -0.467,-0.53799 0.59289,-0.43432 1.15128,-0.88096 1.73195,-1.31965 0.2968,-0.21542 0.51539,-0.19866 1.17645,0.4972 0.53636,0.56505 1.39874,1.68125 1.94151,2.24575 -0.93985,0.22964 -1.38092,-0.66145 -1.79357,-1.15267 -0.52118,-0.66618 -0.7618,-0.83658 -1.00271,-0.77723 -0.68531,0.38776 -1.03329,0.61911 -1.58663,1.04459 z"
       inkscape:connector-curvature="0"
       sodipodi:nodetypes="ccccccssccccccccccscccccscsccccscccccccccccccccsccccccccccc" />
    <path
       style="fill:#9a0000;fill-opacity:1;stroke-width:0.26458335"
       d="m 96.667722,125.65539 c -0.008,0.17609 -0.0923,0.41552 -0.25447,0.63733 -0.20209,0.27638 -0.36742,0.74825 -0.36742,1.04851 0,0.78728 1.91243,3.96207 2.44894,4.06539 0.26325,0.0507 1.04894,-0.47555 1.872238,-1.25419 0.78018,-0.73786 1.54468,-1.34152 1.69912,-1.34152 0.28585,0 2.19529,4.36299 5.03742,11.50937 3.642,9.15761 6.37687,15.0458 7.58197,16.32562 0.86472,0.91829 2.18723,1.15825 4.51135,0.81856 2.24201,-0.32769 3.83646,-0.96206 3.83646,-1.52652 0,-0.37824 -2.83621,-6.68277 -7.73958,-17.20516 -2.10527,-4.51781 -2.94686,-6.31858 -3.0178,-6.67306 -5.21368,-1.73891 -10.34575,-3.90935 -15.608228,-6.40433 z"
       id="path1473"
       inkscape:connector-curvature="0"
       sodipodi:nodetypes="ccscssscssscc" />
  </g>
</svg>
